632241 253360 509
378036 832616 509
225773 804778 509
712106 615908 509
265824 239179 407
222306 106200 386
127077 594622 470
442118 540345 470
443443 951928 525
750811 809331 468
822562 397445 509
184666 187797 347
403110 945520 525
741410 576535 509
8162 898081 525
184864 290027 443
549724 470696 470
183842 914097 525
185776 477324 449
828088 353927 509
332336 275506 389
578560 688379 509
750111 699756 504
394560 336540 441
239888 882162 525
998657 758812 525
7245 210073 383
759007 456226 509
306743 371816 441
484443 776389 509
117666 200444 383
269160 180816 443
625421 21713 470
975145 878201 507
517579 708110 509
75791 671227 509
312653 740340 509
722171 521342 509
986381 880378 507
399722 863344 525
570495 537332 452
2241 368788 443
834810 770443 468
455280 226468 449
242312 676468 509
661365 869642 525
43007 645962 509
56361 700033 509
56522 107118 354
306158 521075 470
114156 690141 509
267173 85528 443
847851 93828 525
987848 758277 525
313186 863072 525
66196 244603 443
120564 149574 375
34964 72117 340
643846 150181 509
959144 183913 525
92159 481601 449
599963 967668 525
887611 208992 525
243401 372525 441
8012 706483 509
284372 108623 443
99109 323065 443
14396 648762 509
431997 352167 449
117127 57583 354
240525 32755 443
174163 557895 470
709127 119373 509
996520 436953 525
340897 462853 449
686795 446633 509
413584 714463 509
479344 633258 509
318950 293298 384
523960 688948 509
355327 795705 509
19640 946189 525
957974 403994 525
508431 952675 525
913082 68419 525
226833 221515 368
294998 42078 443
643425 911521 525
798429 13765 509
513307 93164 470
591317 583679 434
166888 379920 443
539740 900478 525
31712 468785 449
652592 431470 509
895044 31932 525
222550 904993 525
853352 93740 525
264628 689063 509
244172 379664 441
404552 518332 470
392263 894225 525
527895 140855 470
886450 704614 525
418605 399016 449
184045 178890 365
977316 334693 525
875684 852848 432
723217 391979 509
252471 827813 509
175893 822664 509
339170 996506 525
815767 23812 509
771709 678602 504
86088 346657 443
24165 924783 525
528773 966904 525
456053 882684 525
346443 214402 443
234051 256986 381
595622 232656 470
860535 867884 388
950803 112512 525
474025 717051 509
95007 228046 386
9314 409920 443
400731 910390 525
482604 912817 525
684888 975827 525
734787 435713 509
956201 562154 525
407587 163696 443
507655 283507 449
904510 322663 525
966378 954845 414
259557 469580 449
373919 504655 449
356285 121890 443
461319 784554 509
904162 228402 525
418633 702014 509
270280 581684 470
744492 474675 509
110916 386572 443
441116 774372 509
715372 702622 504
242056 105048 443
540346 798483 509
809509 259655 509
611411 324921 470
523360 233990 470
915548 399135 525
68877 170066 383
378206 67382 443
425480 82522 449
773463 549258 509
673554 462778 509
963511 948939 414
999372 554361 525
575817 771163 509
848161 11437 525
879337 735546 525
991037 574758 525
445853 415555 418
554920 262617 470
460542 117180 449
344051 842608 525
291972 653611 509
434435 115240 449
568295 269187 470
496725 107648 449
992311 396935 525
773838 943034 525
372711 679440 509
975335 715100 525
620509 849631 525
757365 354191 509
792213 48019 509
695151 376969 509
3576 240458 443
935990 347770 525
571188 767434 509
441109 436248 400
788160 143908 509
390087 457244 449
474444 400399 449
366580 741030 509
398825 514466 470
627700 458989 509
736693 542057 509
918823 582669 525
374099 953473 525
401251 122534 443
94179 267907 443
708111 989311 525
236798 77572 443
979994 801032 525
284830 12630 443
706230 543268 509
763491 698134 504
535398 323057 470
864984 861777 344
517 648536 509
762881 85295 509
20705 99107 351
349195 606867 470
673273 909757 525
43823 4031 324
245956 567774 470
236570 433221 449
693347 112607 509
960911 85736 525
209940 846957 525
904801 99814 525
156359 833005 509
737455 59971 509
205148 227063 386
680087 389798 509
350393 147828 443
735545 911270 525
788476 788725 300
991934 126037 525
948383 978680 458
950023 299758 525
953216 216521 525
819454 804770 450
331062 878313 525
118597 183561 383
52285 206004 383
521756 200863 470
275601 927318 525
636325 555675 509
188467 157289 370
339399 812903 509
954194 827334 525
97575 210607 383
523932 497676 470
373940 467194 449
833021 951456 525
653811 411092 509
632751 114308 509
454907 494682 444
602962 416080 470
31078 427073 449
49381 54480 340
113340 67006 354
310527 482851 449
296649 694123 509
883240 361149 525
322960 673686 509
783517 642732 504
854677 720840 525
339659 323025 384
702984 682668 442
859324 913460 476
181510 268439 443
201512 266362 443
572686 151170 470
223041 939153 525
450438 183453 449
177227 91856 383
75932 291706 443
361455 402991 436
998843 961464 458
168753 297597 443
798120 190484 509
402318 838619 525
867317 567768 525
826293 335962 509
853011 87062 525
156795 914071 525
66772 136052 354
535616 529086 377
928279 627195 525
673976 523712 509
498211 970735 525
224116 85324 386
288665 44029 443
188760 111786 383
920583 294751 525
605328 918584 525
413827 392066 449
797802 301123 509
69596 243973 443
718886 325587 509
186851 776038 509
413 267976 443
347224 878948 525
985557 244933 525
778911 356808 509
504286 850761 525
588975 853768 525
393834 517679 470
777305 964671 525
266446 971645 525
58057 821360 509
693767 21647 509
314586 77186 443
800878 497122 509
844658 208420 525
